…
``` r
happiness
```

    ## # A tibble: 157 x 13
    ##    Country Region `Happiness Rank` `Happiness Scor… `Lower Confiden…
    ##    <chr>   <chr>             <dbl>            <dbl>            <dbl>
    ##  1 Denmark Weste…                1             7.53             7.46
    ##  2 Switze… Weste…                2             7.51             7.43
    ##  3 Iceland Weste…                3             7.50             7.33
    ##  4 Norway  Weste…                4             7.50             7.42
    ##  5 Finland Weste…                5             7.41             7.35
    ##  6 Canada  North…                6             7.40             7.34
    ##  7 Nether… Weste…                7             7.34             7.28
    ##  8 New Ze… Austr…                8             7.33             7.26
    ##  9 Austra… Austr…                9             7.31             7.24
    ## 10 Sweden  Weste…               10             7.29             7.23
    ## # … with 147 more rows, and 8 more variables: `Upper Confidence
    ## #   Interval` <dbl>, `Economy (GDP per Capita)` <dbl>, Family <dbl>, `Health
    ## #   (Life Expectancy)` <dbl>, Freedom <dbl>, `Trust (Government
    ## #   Corruption)` <dbl>, Generosity <dbl>, `Dystopia Residual` <dbl>
…
    ## Parsed with column specification:
    ## cols(
    ##   Country = col_character(),
    ##   `GDP per capita` = col_double(),
    ##   `ISO-code` = col_character()
    ## )

``` r
# remove the ISO-code column
GDP_per_capita$`ISO-code` <- NULL
GDP_per_capita
```

    ## # A tibble: 191 x 2
    ##    Country             `GDP per capita`
    ##    <chr>                          <dbl>
    ##  1 Afghanistan                     2182
    ##  2 Albania                        14866
    ##  3 Algeria                        16091
    ##  4 Angola                          6763
    ##  5 Antigua and Barbuda            30593
    ##  6 Argentina                      19971
    ##  7 Armenia                        11845
    ##  8 Australia                      54799
    ##  9 Austria                        55171
    ## 10 Azerbaijan                     19156
    ## # … with 181 more rows
…
    ## Parsed with column specification:
    ## cols(
    ##   Country = col_character(),
    ##   `Life expectancy` = col_double(),
    ##   `ISO-code` = col_character()
    ## )

``` r
# remove the ISO-code column
life_exp$`ISO-code` <- NULL
life_exp
```

    ## # A tibble: 185 x 2
    ##    Country             `Life expectancy`
    ##    <chr>                           <dbl>
    ##  1 Afghanistan                      64.5
    ##  2 Algeria                          76.7
    ##  3 Andorra                          81.8
    ##  4 Angola                           60.8
    ##  5 Antigua and Barbuda              76.9
    ##  6 Argentina                        76.5
    ##  7 Armenia                          74.9
    ##  8 Australia                        83.3
    ##  9 Austria                          81.4
    ## 10 Azerbaijan                       72.9
    ## # … with 175 more rows
…
    ## Parsed with column specification:
    ## cols(
    ##   Country = col_character(),
    ##   `Meat consumption` = col_double(),
    ##   `ISO-code` = col_character()
    ## )

``` r
# remove the ISO-code column
meat$`ISO-code` <- NULL
meat
```

    ## # A tibble: 187 x 2
    ##    Country             `Meat consumption`
    ##    <chr>                            <dbl>
    ##  1 Afghanistan                       17.3
    ##  2 Algeria                           18.3
    ##  3 American Samoa                    24.9
    ##  4 Angola                            19  
    ##  5 Antigua and Barbuda               56  
    ##  6 Argentina                         79.7
    ##  7 Armenia                           27.7
    ##  8 Australia                        108. 
    ##  9 Austria                           94.1
    ## 10 Azerbaijan                        15.9
    ## # … with 177 more rows
…
    ## Parsed with column specification:
    ## cols(
    ##   Country = col_character(),
    ##   `Suicide rate` = col_double(),
    ##   `ISO-code` = col_character()
    ## )

``` r
# remove the ISO-code column
suicide$`ISO-code` <- NULL
suicide
```

    ## # A tibble: 182 x 2
    ##    Country             `Suicide rate`
    ##    <chr>                        <dbl>
    ##  1 Afghanistan                    6.4
    ##  2 Albania                        5.6
    ##  3 Algeria                        3.3
    ##  4 Angola                         8.9
    ##  5 Antigua and Barbuda            0.5
    ##  6 Argentina                      9.1
    ##  7 Armenia                        5.7
    ##  8 Australia                     11.7
    ##  9 Austria                       11.4
    ## 10 Azerbaijan                     2.6
    ## # … with 172 more rows
…
``` r
# Combine the GDP_per_capita, Life expectancy, Meat consumption, and Suicide rate data into one dataset
my_data = 
  GDP_per_capita %>% 
  inner_join(life_exp, by = 'Country') %>%
  inner_join(meat, by = 'Country') %>%
  inner_join(suicide, by = 'Country') %>% 
  # remove the duplicate values
  distinct(Country, .keep_all = TRUE)

my_data
```

    ## # A tibble: 168 x 5
    ##    Country     `GDP per capita` `Life expectanc… `Meat consumpti… `Suicide rate`
    ##    <chr>                  <dbl>            <dbl>            <dbl>          <dbl>
    ##  1 Afghanistan             2182             64.5             17.3            6.4
    ##  2 Algeria                16091             76.7             18.3            3.3
    ##  3 Angola                  6763             60.8             19              8.9
    ##  4 Antigua an…            30593             76.9             56              0.5
    ##  5 Argentina              19971             76.5             79.7            9.1
    ##  6 Armenia                11845             74.9             27.7            5.7
    ##  7 Australia              54799             83.3            108.            11.7
    ##  8 Austria                55171             81.4             94.1           11.4
    ##  9 Azerbaijan             19156             72.9             15.9            2.6
    ## 10 Bahrain                51991             77.2             70.7            5.7
    ## # … with 158 more rows
…
``` r
# Combine the happiness dataset and my_data using inner join
new_data = 
  happiness %>% 
  inner_join(my_data, by = 'Country') %>%
  # Rename the column names to more easy-operate ones
  rename('HR' = 'Happiness Rank', 'SR' = 'Suicide rate', 'econ' = 'Economy (GDP per Capita)',
         'HS' = 'Happiness Score', 'MC' = 'Meat consumption', 
         'health' = 'Health (Life Expectancy)', 'trust' = 'Trust (Government Corruption)',
         'GDP' = 'GDP per capita', 'LE' = 'Life expectancy') 

new_data
```

    ## # A tibble: 140 x 17
    ##    Country Region    HR    HS `Lower Confiden… `Upper Confiden…  econ Family
    ##    <chr>   <chr>  <dbl> <dbl>            <dbl>            <dbl> <dbl>  <dbl>
    ##  1 Denmark Weste…     1  7.53             7.46             7.59  1.44  1.16 
    ##  2 Iceland Weste…     3  7.50             7.33             7.67  1.43  1.18 
    ##  3 Norway  Weste…     4  7.50             7.42             7.58  1.58  1.13 
    ##  4 Finland Weste…     5  7.41             7.35             7.48  1.41  1.13 
    ##  5 Canada  North…     6  7.40             7.34             7.47  1.44  1.10 
    ##  6 Nether… Weste…     7  7.34             7.28             7.39  1.46  1.03 
    ##  7 New Ze… Austr…     8  7.33             7.26             7.40  1.36  1.17 
    ##  8 Austra… Austr…     9  7.31             7.24             7.38  1.44  1.10 
    ##  9 Sweden  Weste…    10  7.29             7.23             7.36  1.45  1.09 
    ## 10 Israel  Middl…    11  7.27             7.20             7.34  1.34  0.995
    ## # … with 130 more rows, and 9 more variables: health <dbl>, Freedom <dbl>,
    ## #   trust <dbl>, Generosity <dbl>, `Dystopia Residual` <dbl>, GDP <dbl>,
    ## #   LE <dbl>, MC <dbl>, SR <dbl>
…
Create summary
statistics:

``` r
# The original dataset contains so many numeric variables, so I only choose five of them, which are GDP per capita, Life expectancy, Meat consumption, Suicide rate, and Happiness score. The catagorical variables remain the same.
data1 = 
  new_data %>%
  select(c(Country, Region, GDP, LE, MC, SR, HS))

data1
```

    ## # A tibble: 140 x 7
    ##    Country     Region                            GDP    LE    MC    SR    HS
    ##    <chr>       <chr>                           <dbl> <dbl> <dbl> <dbl> <dbl>
    ##  1 Denmark     Western Europe                  55675  80.8 146.    9.2  7.53
    ##  2 Iceland     Western Europe                  56974  82.9  84.8  13.3  7.50
    ##  3 Norway      Western Europe                  79638  82.5  61.7  10.1  7.50
    ##  4 Finland     Western Europe                  49548  81.7  67.4  11.7  7.41
    ##  5 Canada      North America                   52144  82.3 108.   10.4  7.40
    ##  6 Netherlands Western Europe                  60299  82.1  89.3   9.6  7.34
    ##  7 New Zealand Australia and New Zealand       42045  82.1 142.   11.6  7.33
    ##  8 Australia   Australia and New Zealand       54799  83.3 108.   11.7  7.31
    ##  9 Sweden      Western Europe                  55989  82.7  76.1  13.8  7.29
    ## 10 Israel      Middle East and Northern Africa 40337  82.8  97.1   5.2  7.27
    ## # … with 130 more rows
…
``` r
# Quantile(0, 25, 50, 75, 100 percent) for each of the numeric variables both overall and after grouping by Region
quantiles = data1 %>%
  summarize_if(is.numeric, quantile, na.rm = TRUE) %>% 
  mutate(statistics = 'quantile') %>% 
  select(statistics, everything())


data1 %>%
  group_by(Region) %>%
  summarize_if(is.numeric, quantile, na.rm = TRUE)
```

    ## # A tibble: 50 x 6
    ## # Groups:   Region [10]
    ##    Region                        GDP    LE    MC    SR    HS
    ##    <chr>                       <dbl> <dbl> <dbl> <dbl> <dbl>
    ##  1 Australia and New Zealand  42045   82.1 108.  11.6   7.31
    ##  2 Australia and New Zealand  45234.  82.4 117.  11.6   7.32
    ##  3 Australia and New Zealand  48422   82.7 125.  11.6   7.32
    ##  4 Australia and New Zealand  51610.  83   134.  11.7   7.33
    ##  5 Australia and New Zealand  54799   83.3 142.  11.7   7.33
    ##  6 Central and Eastern Europe  3751   68.1   8.7  2.6   4.22
    ##  7 Central and Eastern Europe 12861.  72.3  27.3  7.35  5.16
    ##  8 Central and Eastern Europe 27620.  74.9  47.6 11     5.54
    ##  9 Central and Eastern Europe 35724.  77.3  67.4 15.1   5.84
    ## 10 Central and Eastern Europe 40585   81.2 101.  26.5   6.60
    ## # … with 40 more rows
…
``` r
# There are too many regions so we can simplify them into six main regions (basically combine those regions with 'Asia', 'Europe', 'Africa' each into one catagory, others remain the same)
sum_region = 
  new_data %>%
  mutate(Region2 = case_when(grepl("Asia", Region) ~ 'Asia',
         grepl("Europe", Region) ~ 'Europe', grepl("Africa", Region) ~ 'Africa',
         grepl("Latin", Region) ~ 'Latin America and Caribbean',
         grepl("America", Region) ~ 'North America',
         grepl("Australia", Region) ~ 'Australia and New Zealand'))

sum_region
```

    ## # A tibble: 140 x 17
    ##    Country Region    HR    HS  econ Family health Freedom  trust Generosity
    ##    <chr>   <chr>  <dbl> <dbl> <dbl>  <dbl>  <dbl>   <dbl>  <dbl>      <dbl>
    ##  1 Denmark Weste…     1  7.53  1.44  1.16   0.795   0.579 0.445       0.362
    ##  2 Iceland Weste…     3  7.50  1.43  1.18   0.867   0.566 0.150       0.477
    ##  3 Norway  Weste…     4  7.50  1.58  1.13   0.796   0.596 0.358       0.379
    ##  4 Finland Weste…     5  7.41  1.41  1.13   0.811   0.571 0.410       0.255
    ##  5 Canada  North…     6  7.40  1.44  1.10   0.828   0.574 0.313       0.448
    ##  6 Nether… Weste…     7  7.34  1.46  1.03   0.812   0.552 0.299       0.474
    ##  7 New Ze… Austr…     8  7.33  1.36  1.17   0.831   0.581 0.419       0.494
    ##  8 Austra… Austr…     9  7.31  1.44  1.10   0.851   0.568 0.323       0.474
    ##  9 Sweden  Weste…    10  7.29  1.45  1.09   0.831   0.582 0.409       0.383
    ## 10 Israel  Middl…    11  7.27  1.34  0.995  0.849   0.364 0.0873      0.323
    ## # … with 130 more rows, and 7 more variables: `Dystopia Residual` <dbl>,
    ## #   GDP <dbl>, LE <dbl>, MC <dbl>, SR <dbl>, rank <chr>, Region2 <chr>
…
